{
  "PropertyType": [
    {
      "key": "apartment",
      "unicode": "f863",
      "value": "Apartment",
      "className": "fas fa-building"
    },
    {
      "key": "house",
      "unicode": "f863",
      "value": "House",
      "className": "fas fa-home"
    },
    {
      "key": "plot",
      "unicode": "f863",
      "value": "Plot",
      "className": "fas fa-igloo"
    },
    {
      "key": "land",
      "unicode": "f863",
      "value": "Land",
      "className": "fas fa-landmark"
    },
    {
      "key": "warehouse",
      "unicode": "f863",
      "value": "Warehouse",
      "className": "fas fa-warehouse"
    },
    {
      "key": "factories",
      "unicode": "f863",
      "value": "Factories",
      "className": "fas fa-industry"
    },
    {
      "key": "mines",
      "unicode": "f863",
      "value": "Mines",
      "className": "fas fa-landmark"
    }
    
  ],
  "Collection":[
    {
      "key": "NRI",
      "unicode": "f863",
      "value": "NRI",
      "className": "fas fa-user"
    },
    {
      "key": "Featured",
      "unicode": "f863",
      "value": "Featured",
      "className": "far fa-star"
    },
    {
      "key": "top_5",
      "unicode": "f863",
      "value": "Top 5",
      "className": "fas fa-arrow-to-top"
    },
    {
      "key": "Growth",
      "unicode": "f863",
      "value": "Growth",
      "className": "fas fa-hand-holding-usd"
    },
    {
      "key": "New",
      "unicode": "f863",
      "value": "New",
      "className": "fas fa-arrow-to-top"
    }

  ],
  "properties": [
    {
      "id": "property1001",
      "propertyAddress": "",
      "images": [
        {
          "mobile": "/static/media/mobile.jpg",
          "tablet": "../images/homewebsite.png",
          "laptop": "/static/media/mobile.6e627553.jpg",
          "hd": "/static/media/mobile.6e627553.jpg"
        }
      ],
      "propertyTabs": [
        {
          "id": "aboutProject",
          "aboutProject": [
            {
              "value": "BBP Limits"
            },
            {
              "value": "OC and CC obtained"
            },
            {
              "value": "Budget friendly ( Starting 47L ) "
            },
            {
              "value": "14 flats sold and lively resident community"
            },
            {
              "value": "24/7 security and surveillance"
            },
            {
              "value": "24/7 water supply"
            }
          ]
        },
        {
          "id": "aboutLocation",
          "aboutLocation": [
            {
              "value": "0.5 km from Wipro Main gate Sarjapur Road"
            },
            {
              "value": "Near all softeare tech parks"
            },
            {
              "value": "Building viewable from an entire neighbourhood"
            },
            {
              "value": "Walkable distance to supermarket, schools, fine dining restaurant, breweries, boutiques, and malls"
            },
            {
              "value": "Away from bypass road so less traffic and less pollution"
            },
            {
              "value": "Walkable distance to the heart of evergrowing sarjapur road"
            }
          ]
        },
        {
          "id": "beegruScore",
          "beegruScore": [
            {
              "key": "Legal and Bank Support",
              "value": "80"
            },
            {
              "key": "Approval stage",
              "value": "60"
            },
            {
              "key": "Accesibility",
              "value": "80"
            },
            {
              "key": "Vaastu & Location",
              "value": "80"
            },
            {
              "key": "Price Value",
              "value": "50"
            },
            {
              "key": "Neighbourhood",
              "value": "90"
            },
            {
              "key": "Appreciation Potential",
              "value": "80"
            }
          ]
        },
        {
          "id": "propertAmenities",
          "propertAmenities": [
            {
              "key": "ac",
              "unicode": "f863",
              "value": "AC"
            },
            {
              "key": "gym",
              "unicode": "f44b",
              "value": "GYM"
            },
            {
              "key": "laundry",
              "unicode": "f898",
              "value": "Laundry"
            },
            {
              "key": "cctv",
              "unicode": "f030",
              "value": "CCTV"
            },
            {
              "key": "security",
              "unicode": "f2f7",
              "value": "SECURITY"
            },
            {
              "key": "wifi",
              "unicode": "f1eb",
              "value": "WIFI"
            },
            {
              "key": "pool",
              "unicode": "f5c4",
              "value": "POOL"
            }
          ]
        },
        {
          "id": "propertLocation",
          "propertLocation": [
            {
              "address": "Kesav Nagar, Bangalore",
              "latitude": "",
              "longitude": ""
            }
          ]
        },
        {
          "id": "propertVicinity",
          "propertVicinity": [
            {
              "id": "Schools",
              "nearBy": [
                {
                  "name": "OldField Primary School",
                  "distanceFrom": "0.6 miles"
                },
                {
                  "name": "Guilden Sutton Cofe primary schools",
                  "distanceFrom": "0.7 miles"
                },
                {
                  "name": "The Hammold School",
                  "distanceFrom": "0.8 miles"
                },
                {
                  "name": "The bishop Blue Coat High School",
                  "distanceFrom": "1.6 miles"
                }
              ]
            },
            {
              "id": "Restaurant",
              "nearBy": [
                {
                  "name": "OldField Primary School",
                  "distanceFrom": "0.6 miles"
                },
                {
                  "name": "Guilden Sutton Cofe primary schools",
                  "distanceFrom": "0.7 miles"
                },
                {
                  "name": "The Hammold School",
                  "distanceFrom": "0.8 miles"
                },
                {
                  "name": "The bishop Blue Coat High School",
                  "distanceFrom": "1.6 miles"
                }
              ]
            },
            {
              "id": "Malls",
              "nearBy": [
                {
                  "name": "OldField Primary School",
                  "distanceFrom": "0.6 miles"
                },
                {
                  "name": "Guilden Sutton Cofe primary schools",
                  "distanceFrom": "0.7 miles"
                },
                {
                  "name": "The Hammold School",
                  "distanceFrom": "0.8 miles"
                },
                {
                  "name": "The bishop Blue Coat High School",
                  "distanceFrom": "1.6 miles"
                }
              ]
            },
            {
              "id": "Hospitals",
              "nearBy": [
                {
                  "name": "OldField Primary School",
                  "distanceFrom": "0.6 miles"
                },
                {
                  "name": "Guilden Sutton Cofe primary schools",
                  "distanceFrom": "0.7 miles"
                },
                {
                  "name": "The Hammold School",
                  "distanceFrom": "0.8 miles"
                },
                {
                  "name": "The bishop Blue Coat High School",
                  "distanceFrom": "1.6 miles"
                }
              ]
            }
          ]
        }
      ],
      "propertyDetails": [
        {
          "propertyName": "Jaz Aquaviva Hurghada",
          "propertyType": "House Tolet/For Sale",
          "propertyPrice": "53,88,678",
          "propertyPerSqFt": "5757/sqft",
          "propertyPriceIcons": [
            {
              "icon": "upload",
              "key": "upload",
              "value": "upload"
            },
            {
              "icon": "floppy",
              "key": "floppy",
              "value": "floppy"
            }
          ],
          "propertyIcons": [
            {
              "icon": "room",
              "key": "roomPSqFt",
              "value": "1600 sq Ft"
            },
            {
              "icon": "beds",
              "key": "beds",
              "value": "2 beds"
            },
            {
              "icon": "bath",
              "key": "bath",
              "value": "1 bath"
            },
            {
              "icon": "garage",
              "key": "garage",
              "value": "1 garage"
            }
          ],
          "propertyAddress": "Pole star city barajod Toll Plaza, Kanpur",
          "name": "property 1",
          "heading": "5BHK mansion in Anekal for sale",
          "synopsis": "Lorem Ipsum is simply dummy text of the printing and typesetting industry. Lorem Ipsum has been the industry's standard dummy text ever since the 1500s, when an unknown printer took a galley of type and scrambled it to make a type specimen book. It has survived not only five centuries, but also the leap into electronic ",
          "priceRange": "120000-320000",
          "minPrice": "120000",
          "maxPrice": "320000",
          "currency": "rupee",
          "type": "independent House",
          "location": "anekalgooglemaplink",
          "locality": "Anekal, ",
          "distict": "Bangalore, ",
          "state": " Karnataka",
          "propertyAction": "For Sale",
          "pricePerSqft": "2400 Sq ft",
          "roomDetails": [
            {
              "bedRoom": "2",
              "bedRoomType": "onoe master/one normal",
              "bathroom": "2",
              "bathroomType": "one attached/one separate",
              "flooring": "marble",
              "studyRoom": "yes",
              "beds": "3"
            }
          ],
          "roomShortMetadata": {
            "icons": {
              "bedRoom": "2",
              "bathRoom": "2",
              "beds": "2"
            }
          }
        }
      ]
    },
    {
      "id": "property1002",
      "images": [
        {
          "mobile": "/static/media/mobile.6e627553.jpg",
          "tablet": "/static/media/mobile.6e627553.jpg",
          "laptop": "/static/media/mobile.6e627553.jpg",
          "hd": "/static/media/mobile.6e627553.jpg"
        }
      ],
      "propertyTabs": [
        {
          "id": "aboutProject",
          "aboutProject": [
            {
              "value": "BBP Limits"
            },
            {
              "value": "OC and CC obtained"
            },
            {
              "value": "Budget friendly ( Starting 47L ) "
            },
            {
              "value": "14 flats sold and lively resident community"
            },
            {
              "value": "24/7 security and surveillance"
            },
            {
              "value": "24/7 water supply"
            }
          ]
        },
        {
          "id": "aboutLocation",
          "aboutLocation": [
            {
              "value": "0.5 km from Wipro Main gate Sarjapur Road"
            },
            {
              "value": "Near all softeare tech parks"
            },
            {
              "value": "Building viewable from an entire neighbourhood"
            },
            {
              "value": "Walkable distance to supermarket, schools, fine dining restaurant, breweries, boutiques, and malls"
            },
            {
              "value": "Away from bypass road so less traffic and less pollution"
            },
            {
              "value": "Walkable distance to the heart of evergrowing sarjapur road"
            }
          ]
        },
        {
          "id": "beegruScore",
          "beegruScore": [
            {
              "key": "Legal and Bank Support",
              "value": "80"
            },
            {
              "key": "Approval stage",
              "value": "60"
            },
            {
              "key": "Accesibility",
              "value": "80"
            },
            {
              "key": "Vaastu & Location",
              "value": "80"
            },
            {
              "key": "Price Value",
              "value": "50"
            },
            {
              "key": "Neighbourhood",
              "value": "90"
            },
            {
              "key": "Appreciation Potential",
              "value": "80"
            }
          ]
        },
        {
          "id": "propertAmenities",
          "propertAmenities": [
            {
              "key": "ac",
              "unicode": "",
              "value": "AC"
            },
            {
              "key": "gym",
              "unicode": "",
              "value": "GYM"
            },
            {
              "key": "laundry",
              "unicode": "",
              "value": "Laundry"
            },
            {
              "key": "cctv",
              "unicode": "",
              "value": "CCTV"
            },
            {
              "key": "security",
              "unicode": "",
              "value": "SECURITY"
            },
            {
              "key": "wifi",
              "unicode": "",
              "value": "WIFI"
            },
            {
              "key": "pool",
              "unicode": "",
              "value": "POOL"
            }
          ]
        },
        {
          "id": "propertLocation",
          "propertLocation": [
            {
              "address": "Kesav Nagar, Bangalore",
              "latitude": "",
              "longitude": ""
            }
          ]
        },
        {
          "id": "propertVicinity",
          "propertVicinity": [
            {
              "id": "Schools",
              "nearBy": [
                {
                  "name": "OldField Primary School",
                  "distanceFrom": "0.6 miles"
                },
                {
                  "name": "Guilden Sutton Cofe primary schools",
                  "distanceFrom": "0.7 miles"
                },
                {
                  "name": "The Hammold School",
                  "distanceFrom": "0.8 miles"
                },
                {
                  "name": "The bishop Blue Coat High School",
                  "distanceFrom": "1.6 miles"
                }
              ]
            },
            {
              "id": "Restaurant",
              "nearBy": [
                {
                  "name": "OldField Primary School",
                  "distanceFrom": "0.6 miles"
                },
                {
                  "name": "Guilden Sutton Cofe primary schools",
                  "distanceFrom": "0.7 miles"
                },
                {
                  "name": "The Hammold School",
                  "distanceFrom": "0.8 miles"
                },
                {
                  "name": "The bishop Blue Coat High School",
                  "distanceFrom": "1.6 miles"
                }
              ]
            },
            {
              "id": "Malls",
              "nearBy": [
                {
                  "name": "OldField Primary School",
                  "distanceFrom": "0.6 miles"
                },
                {
                  "name": "Guilden Sutton Cofe primary schools",
                  "distanceFrom": "0.7 miles"
                },
                {
                  "name": "The Hammold School",
                  "distanceFrom": "0.8 miles"
                },
                {
                  "name": "The bishop Blue Coat High School",
                  "distanceFrom": "1.6 miles"
                }
              ]
            },
            {
              "id": "Hospitals",
              "nearBy": [
                {
                  "name": "OldField Primary School",
                  "distanceFrom": "0.6 miles"
                },
                {
                  "name": "Guilden Sutton Cofe primary schools",
                  "distanceFrom": "0.7 miles"
                },
                {
                  "name": "The Hammold School",
                  "distanceFrom": "0.8 miles"
                },
                {
                  "name": "The bishop Blue Coat High School",
                  "distanceFrom": "1.6 miles"
                }
              ]
            }
          ]
        }
      ],
      "propertyDetails": [
        {
          "propertyName": "Jaz Aquaviva Hurghada",
          "propertyType": "House Tolet/For Sale",
          "propertyPrice": "53,88,678",
          "propertyPerSqFt": "5757/sqft",
          "propertyPriceIcons": [
            {
              "icon": "upload",
              "key": "upload",
              "value": "upload"
            },
            {
              "icon": "floppy",
              "key": "floppy",
              "value": "floppy"
            }
          ],
          "propertyIcons": [
            {
              "icon": "room",
              "key": "roomPSqFt",
              "value": "1600 sq Ft"
            },
            {
              "icon": "beds",
              "key": "beds",
              "value": "2 beds"
            },
            {
              "icon": "bath",
              "key": "bath",
              "value": "1 bath"
            },
            {
              "icon": "garage",
              "key": "garage",
              "value": "1 garage"
            }
          ],
          "propertyAddress": "Pole star city barajod Toll Plaza, Kanpur",
          "name": "property 2",
          "heading": "Recedential property 8 acres on Hrlur Main Road",
          "synopsis": "Lorem Ipsum is simply dummy text of the printing and typesetting industry. Lorem Ipsum has been the industry's standard dummy text ever since the 1500s, when an unknown printer took a galley of type and scrambled it to make a type specimen book. It has survived not only five centuries, but also the leap into electronic ",
          "priceRange": "120000-320000",
          "minPrice": "120000",
          "maxPrice": "320000",
          "currency": "rupee",
          "type": "independent House",
          "location": "anekalgooglemaplink",
          "locality": "Anekal, ",
          "distict": "Bangalore, ",
          "state": " Karnataka",
          "propertyAction": "For Sale",
          "pricePerSqft": "2400 Sq ft",
          "roomDetails": [
            {
              "bedRoom": "2",
              "bedRoomType": "onoe master/one normal",
              "bathroom": "2",
              "bathroomType": "one attached/one separate",
              "flooring": "marble",
              "studyRoom": "yes",
              "beds": "3"
            }
          ],
          "roomShortMetadata": {
            "icons": {
              "bedRoom": "2",
              "bathRoom": "2",
              "beds": "2"
            }
          }
        }
      ]
    },
    {
      "id": "property1003",
      "images": [
        {
          "mobile": "/static/media/mobile.6e627553.jpg",
          "tablet": "/static/media/mobile.6e627553.jpg",
          "laptop": "/static/media/mobile.6e627553.jpg",
          "hd": "/static/media/mobile.6e627553.jpg"
        }
      ],
      "propertyTabs": [
        {
          "id": "aboutProject",
          "aboutProject": [
            {
              "value": "BBP Limits"
            },
            {
              "value": "OC and CC obtained"
            },
            {
              "value": "Budget friendly ( Starting 47L ) "
            },
            {
              "value": "14 flats sold and lively resident community"
            },
            {
              "value": "24/7 security and surveillance"
            },
            {
              "value": "24/7 water supply"
            }
          ]
        },
        {
          "id": "aboutLocation",
          "aboutLocation": [
            {
              "value": "0.5 km from Wipro Main gate Sarjapur Road"
            },
            {
              "value": "Near all softeare tech parks"
            },
            {
              "value": "Building viewable from an entire neighbourhood"
            },
            {
              "value": "Walkable distance to supermarket, schools, fine dining restaurant, breweries, boutiques, and malls"
            },
            {
              "value": "Away from bypass road so less traffic and less pollution"
            },
            {
              "value": "Walkable distance to the heart of evergrowing sarjapur road"
            }
          ]
        },
        {
          "id": "beegruScore",
          "beegruScore": [
            {
              "key": "Legal and Bank Support",
              "value": "80"
            },
            {
              "key": "Approval stage",
              "value": "60"
            },
            {
              "key": "Accesibility",
              "value": "80"
            },
            {
              "key": "Vaastu & Location",
              "value": "80"
            },
            {
              "key": "Price Value",
              "value": "50"
            },
            {
              "key": "Neighbourhood",
              "value": "90"
            },
            {
              "key": "Appreciation Potential",
              "value": "80"
            }
          ]
        },
        {
          "id": "propertAmenities",
          "propertAmenities": [
            {
              "key": "ac",
              "unicode": "",
              "value": "AC"
            },
            {
              "key": "gym",
              "unicode": "",
              "value": "GYM"
            },
            {
              "key": "laundry",
              "unicode": "",
              "value": "Laundry"
            },
            {
              "key": "cctv",
              "unicode": "",
              "value": "CCTV"
            },
            {
              "key": "security",
              "unicode": "",
              "value": "SECURITY"
            },
            {
              "key": "wifi",
              "unicode": "",
              "value": "WIFI"
            },
            {
              "key": "pool",
              "unicode": "",
              "value": "POOL"
            }
          ]
        }
      ],
      "propertyDetails": [
        {
          "propertyName": "Jaz Aquaviva Hurghada",
          "propertyType": "House Tolet/For Sale",
          "propertyPrice": "53,88,678",
          "propertyPerSqFt": "5757/sqft",
          "propertyPriceIcons": [
            {
              "icon": "upload",
              "key": "upload",
              "value": "upload"
            },
            {
              "icon": "floppy",
              "key": "floppy",
              "value": "floppy"
            }
          ],
          "propertyIcons": [
            {
              "icon": "room",
              "key": "roomPSqFt",
              "value": "1600 sq Ft"
            },
            {
              "icon": "beds",
              "key": "beds",
              "value": "2 beds"
            },
            {
              "icon": "bath",
              "key": "bath",
              "value": "1 bath"
            },
            {
              "icon": "garage",
              "key": "garage",
              "value": "1 garage"
            }
          ],
          "propertyAddress": "Pole star city barajod Toll Plaza, Kanpur",
          "name": "property 3",
          "heading": "Recedential property 8 acres on Hrlur main road",
          "synopsis": "Lorem Ipsum is simply dummy text of the printing and typesetting industry. Lorem Ipsum has been the industry's standard dummy text ever since the 1500s, when an unknown printer took a galley of type and scrambled it to make a type specimen book. It has survived not only five centuries, but also the leap into electronic ",
          "priceRange": "120000-320000",
          "minPrice": "120000",
          "maxPrice": "320000",
          "currency": "rupee",
          "type": "independent House",
          "location": "anekalgooglemaplink",
          "locality": " Jayanagar, ",
          "distict": " Bangalore, ",
          "state": " Karnataka",
          "propertyAction": "For Sale",
          "pricePerSqft": "2400 Sq ft",
          "roomDetails": [
            {
              "bedRoom": "2",
              "bedRoomType": "onoe master/one normal",
              "bathroom": "2",
              "bathroomType": "one attached/one separate",
              "flooring": "marble",
              "studyRoom": "yes",
              "beds": "3"
            }
          ],
          "roomShortMetadata": {
            "icons": {
              "bedRoom": "2",
              "bathRoom": "2",
              "beds": "2"
            }
          }
        }
      ]
    },
    {
      "id": "property1004",
      "images": [
        {
          "mobile": "/static/media/mobile.6e627553.jpg",
          "tablet": "/static/media/mobile.6e627553.jpg",
          "laptop": "/static/media/mobile.6e627553.jpg",
          "hd": "/static/media/mobile.6e627553.jpg"
        }
      ],
      "propertyTabs": [
        {
          "id": "aboutProject",
          "aboutProject": [
            {
              "value": "BBP Limits"
            },
            {
              "value": "OC and CC obtained"
            },
            {
              "value": "Budget friendly ( Starting 47L ) "
            },
            {
              "value": "14 flats sold and lively resident community"
            },
            {
              "value": "24/7 security and surveillance"
            },
            {
              "value": "24/7 water supply"
            }
          ]
        },
        {
          "id": "aboutLocation",
          "aboutLocation": [
            {
              "value": "0.5 km from Wipro Main gate Sarjapur Road"
            },
            {
              "value": "Near all softeare tech parks"
            },
            {
              "value": "Building viewable from an entire neighbourhood"
            },
            {
              "value": "Walkable distance to supermarket, schools, fine dining restaurant, breweries, boutiques, and malls"
            },
            {
              "value": "Away from bypass road so less traffic and less pollution"
            },
            {
              "value": "Walkable distance to the heart of evergrowing sarjapur road"
            }
          ]
        },
        {
          "id": "beegruScore",
          "beegruScore": [
            {
              "key": "Legal and Bank Support",
              "value": "80"
            },
            {
              "key": "Approval stage",
              "value": "60"
            },
            {
              "key": "Accesibility",
              "value": "80"
            },
            {
              "key": "Vaastu & Location",
              "value": "80"
            },
            {
              "key": "Price Value",
              "value": "50"
            },
            {
              "key": "Neighbourhood",
              "value": "90"
            },
            {
              "key": "Appreciation Potential",
              "value": "80"
            }
          ]
        },
        {
          "id": "propertAmenities",
          "propertAmenities": [
            {
              "key": "ac",
              "unicode": "",
              "value": "AC"
            },
            {
              "key": "gym",
              "unicode": "",
              "value": "GYM"
            },
            {
              "key": "laundry",
              "unicode": "",
              "value": "Laundry"
            },
            {
              "key": "cctv",
              "unicode": "",
              "value": "CCTV"
            },
            {
              "key": "security",
              "unicode": "",
              "value": "SECURITY"
            },
            {
              "key": "wifi",
              "unicode": "",
              "value": "WIFI"
            },
            {
              "key": "pool",
              "unicode": "",
              "value": "POOL"
            }
          ]
        },
        {
          "id": "propertLocation",
          "propertLocation": [
            {
              "address": "Kesav Nagar, Bangalore",
              "latitude": "",
              "longitude": ""
            }
          ]
        },
        {
          "id": "propertVicinity",
          "propertVicinity": [
            {
              "id": "Schools",
              "nearBy": [
                {
                  "name": "OldField Primary School",
                  "distanceFrom": "0.6 miles"
                },
                {
                  "name": "Guilden Sutton Cofe primary schools",
                  "distanceFrom": "0.7 miles"
                },
                {
                  "name": "The Hammold School",
                  "distanceFrom": "0.8 miles"
                },
                {
                  "name": "The bishop Blue Coat High School",
                  "distanceFrom": "1.6 miles"
                }
              ]
            },
            {
              "id": "Restaurant",
              "nearBy": [
                {
                  "name": "OldField Primary School",
                  "distanceFrom": "0.6 miles"
                },
                {
                  "name": "Guilden Sutton Cofe primary schools",
                  "distanceFrom": "0.7 miles"
                },
                {
                  "name": "The Hammold School",
                  "distanceFrom": "0.8 miles"
                },
                {
                  "name": "The bishop Blue Coat High School",
                  "distanceFrom": "1.6 miles"
                }
              ]
            },
            {
              "id": "Malls",
              "nearBy": [
                {
                  "name": "OldField Primary School",
                  "distanceFrom": "0.6 miles"
                },
                {
                  "name": "Guilden Sutton Cofe primary schools",
                  "distanceFrom": "0.7 miles"
                },
                {
                  "name": "The Hammold School",
                  "distanceFrom": "0.8 miles"
                },
                {
                  "name": "The bishop Blue Coat High School",
                  "distanceFrom": "1.6 miles"
                }
              ]
            },
            {
              "id": "Hospitals",
              "nearBy": [
                {
                  "name": "OldField Primary School",
                  "distanceFrom": "0.6 miles"
                },
                {
                  "name": "Guilden Sutton Cofe primary schools",
                  "distanceFrom": "0.7 miles"
                },
                {
                  "name": "The Hammold School",
                  "distanceFrom": "0.8 miles"
                },
                {
                  "name": "The bishop Blue Coat High School",
                  "distanceFrom": "1.6 miles"
                }
              ]
            }
          ]
        }
      ],
      "propertyDetails": [
        {
          "propertyName": "Jaz Aquaviva Hurghada",
          "propertyType": "House Tolet/For Sale",
          "propertyPrice": "53,88,678",
          "propertyPerSqFt": "5757/sqft",
          "propertyPriceIcons": [
            {
              "icon": "upload",
              "key": "upload",
              "value": "upload"
            },
            {
              "icon": "floppy",
              "key": "floppy",
              "value": "floppy"
            }
          ],
          "propertyIcons": [
            {
              "icon": "room",
              "key": "roomPSqFt",
              "value": "1600 sq Ft"
            },
            {
              "icon": "beds",
              "key": "beds",
              "value": "2 beds"
            },
            {
              "icon": "bath",
              "key": "bath",
              "value": "1 bath"
            },
            {
              "icon": "garage",
              "key": "garage",
              "value": "1 garage"
            }
          ],
          "propertyAddress": "Pole star city barajod Toll Plaza, Kanpur",
          "name": "property 4",
          "heading": "Recedential property 8 acres on Hrlur main road",
          "synopsis": "Lorem Ipsum is simply dummy text of the printing and typesetting industry. Lorem Ipsum has been the industry's standard dummy text ever since the 1500s, when an unknown printer took a galley of type and scrambled it to make a type specimen book. It has survived not only five centuries, but also the leap into electronic ",
          "priceRange": "120000-320000",
          "minPrice": "120000",
          "maxPrice": "320000",
          "currency": "rupee",
          "type": "independent House",
          "location": "anekalgooglemaplink",
          "locality": " Basavangudi, ",
          "distict": " Bangalore, ",
          "state": " Karnataka",
          "propertyAction": "For Sale",
          "pricePerSqft": "2400 Sq ft",
          "roomDetails": [
            {
              "bedRoom": "2",
              "bedRoomType": "onoe master/one normal",
              "bathroom": "2",
              "bathroomType": "one attached/one separate",
              "flooring": "marble",
              "studyRoom": "yes",
              "beds": "3"
            }
          ],
          "roomShortMetadata": {
            "icons": {
              "bedRoom": "2",
              "bathRoom": "2",
              "beds": "2"
            }
          }
        }
      ]
    },
    {
      "id": "property1005",
      "images": [
        {
          "mobile": "/static/media/mobile.6e627553.jpg",
          "tablet": "/static/media/mobile.6e627553.jpg",
          "laptop": "/static/media/mobile.6e627553.jpg",
          "hd": "/static/media/mobile.6e627553.jpg"
        }
      ],
      "propertyTabs": [
        {
          "id": "aboutProject",
          "aboutProject": [
            {
              "value": "BBP Limits"
            },
            {
              "value": "OC and CC obtained"
            },
            {
              "value": "Budget friendly ( Starting 47L ) "
            },
            {
              "value": "14 flats sold and lively resident community"
            },
            {
              "value": "24/7 security and surveillance"
            },
            {
              "value": "24/7 water supply"
            }
          ]
        },
        {
          "id": "aboutLocation",
          "aboutLocation": [
            {
              "value": "0.5 km from Wipro Main gate Sarjapur Road"
            },
            {
              "value": "Near all softeare tech parks"
            },
            {
              "value": "Building viewable from an entire neighbourhood"
            },
            {
              "value": "Walkable distance to supermarket, schools, fine dining restaurant, breweries, boutiques, and malls"
            },
            {
              "value": "Away from bypass road so less traffic and less pollution"
            },
            {
              "value": "Walkable distance to the heart of evergrowing sarjapur road"
            }
          ]
        },
        {
          "id": "beegruScore",
          "beegruScore": [
            {
              "key": "Legal and Bank Support",
              "value": "80"
            },
            {
              "key": "Approval stage",
              "value": "60"
            },
            {
              "key": "Accesibility",
              "value": "80"
            },
            {
              "key": "Vaastu & Location",
              "value": "80"
            },
            {
              "key": "Price Value",
              "value": "50"
            },
            {
              "key": "Neighbourhood",
              "value": "90"
            },
            {
              "key": "Appreciation Potential",
              "value": "80"
            }
          ]
        },
        {
          "id": "propertAmenities",
          "propertAmenities": [
            {
              "key": "ac",
              "unicode": "",
              "value": "AC"
            },
            {
              "key": "gym",
              "unicode": "",
              "value": "GYM"
            },
            {
              "key": "laundry",
              "unicode": "",
              "value": "Laundry"
            },
            {
              "key": "cctv",
              "unicode": "",
              "value": "CCTV"
            },
            {
              "key": "security",
              "unicode": "",
              "value": "SECURITY"
            },
            {
              "key": "wifi",
              "unicode": "",
              "value": "WIFI"
            },
            {
              "key": "pool",
              "unicode": "",
              "value": "POOL"
            }
          ]
        },
        {
          "id": "propertLocation",
          "propertLocation": [
            {
              "address": "Kesav Nagar, Bangalore",
              "latitude": "",
              "longitude": ""
            }
          ]
        },
        {
          "id": "propertVicinity",
          "propertVicinity": [
            {
              "id": "Schools",
              "nearBy": [
                {
                  "name": "OldField Primary School",
                  "distanceFrom": "0.6 miles"
                },
                {
                  "name": "Guilden Sutton Cofe primary schools",
                  "distanceFrom": "0.7 miles"
                },
                {
                  "name": "The Hammold School",
                  "distanceFrom": "0.8 miles"
                },
                {
                  "name": "The bishop Blue Coat High School",
                  "distanceFrom": "1.6 miles"
                }
              ]
            },
            {
              "id": "Restaurant",
              "nearBy": [
                {
                  "name": "OldField Primary School",
                  "distanceFrom": "0.6 miles"
                },
                {
                  "name": "Guilden Sutton Cofe primary schools",
                  "distanceFrom": "0.7 miles"
                },
                {
                  "name": "The Hammold School",
                  "distanceFrom": "0.8 miles"
                },
                {
                  "name": "The bishop Blue Coat High School",
                  "distanceFrom": "1.6 miles"
                }
              ]
            },
            {
              "id": "Malls",
              "nearBy": [
                {
                  "name": "OldField Primary School",
                  "distanceFrom": "0.6 miles"
                },
                {
                  "name": "Guilden Sutton Cofe primary schools",
                  "distanceFrom": "0.7 miles"
                },
                {
                  "name": "The Hammold School",
                  "distanceFrom": "0.8 miles"
                },
                {
                  "name": "The bishop Blue Coat High School",
                  "distanceFrom": "1.6 miles"
                }
              ]
            },
            {
              "id": "Hospitals",
              "nearBy": [
                {
                  "name": "OldField Primary School",
                  "distanceFrom": "0.6 miles"
                },
                {
                  "name": "Guilden Sutton Cofe primary schools",
                  "distanceFrom": "0.7 miles"
                },
                {
                  "name": "The Hammold School",
                  "distanceFrom": "0.8 miles"
                },
                {
                  "name": "The bishop Blue Coat High School",
                  "distanceFrom": "1.6 miles"
                }
              ]
            }
          ]
        }
      ],
      "propertyDetails": [
        {
          "propertyName": "Jaz Aquaviva Hurghada",
          "propertyType": "House Tolet/For Sale",
          "propertyPrice": "53,88,678",
          "propertyPerSqFt": "5757/sqft",
          "propertyPriceIcons": [
            {
              "icon": "upload",
              "key": "upload",
              "value": "upload"
            },
            {
              "icon": "floppy",
              "key": "floppy",
              "value": "floppy"
            }
          ],
          "propertyIcons": [
            {
              "icon": "room",
              "key": "roomPSqFt",
              "value": "1600 sq Ft"
            },
            {
              "icon": "beds",
              "key": "beds",
              "value": "2 beds"
            },
            {
              "icon": "bath",
              "key": "bath",
              "value": "1 bath"
            },
            {
              "icon": "garage",
              "key": "garage",
              "value": "1 garage"
            }
          ],
          "propertyAddress": "Pole star city barajod Toll Plaza, Kanpur",

          "name": "property 5",
          "heading": "1 acres land for sale (Industrial)",
          "synopsis": "Lorem Ipsum is simply dummy text of the printing and typesetting industry. Lorem Ipsum has been the industry's standard dummy text ever since the 1500s, when an unknown printer took a galley of type and scrambled it to make a type specimen book. It has survived not only five centuries, but also the leap into electronic ",
          "priceRange": "120000-320000",
          "minPrice": "120000",
          "maxPrice": "320000",
          "currency": "rupee",
          "type": "independent House",
          "location": "anekalgooglemaplink",
          "locality": " White field, ",
          "distict": " Bangalore, ",
          "state": " Karnataka",
          "propertyAction": "For Sale",
          "pricePerSqft": "2400 Sq ft",
          "roomDetails": [
            {
              "bedRoom": "2",
              "bedRoomType": "onoe master/one normal",
              "bathroom": "2",
              "bathroomType": "one attached/one separate",
              "flooring": "marble",
              "studyRoom": "yes",
              "beds": "3"
            }
          ],
          "roomShortMetadata": {
            "icons": {
              "bedRoom": "2",
              "bathRoom": "2",
              "beds": "2"
            }
          }
        }
      ]
    },
    {
      "id": "property1006",
      "images": [
        {
          "mobile": "/static/media/mobile.6e627553.jpg",
          "tablet": "/static/media/mobile.6e627553.jpg",
          "laptop": "/static/media/mobile.6e627553.jpg",
          "hd": "/static/media/mobile.6e627553.jpg"
        }
      ],
      "propertyTabs": [
        {
          "id": "aboutProject",
          "aboutProject": [
            {
              "value": "BBP Limits"
            },
            {
              "value": "OC and CC obtained"
            },
            {
              "value": "Budget friendly ( Starting 47L ) "
            },
            {
              "value": "14 flats sold and lively resident community"
            },
            {
              "value": "24/7 security and surveillance"
            },
            {
              "value": "24/7 water supply"
            }
          ]
        },
        {
          "id": "aboutLocation",
          "aboutLocation": [
            {
              "value": "0.5 km from Wipro Main gate Sarjapur Road"
            },
            {
              "value": "Near all softeare tech parks"
            },
            {
              "value": "Building viewable from an entire neighbourhood"
            },
            {
              "value": "Walkable distance to supermarket, schools, fine dining restaurant, breweries, boutiques, and malls"
            },
            {
              "value": "Away from bypass road so less traffic and less pollution"
            },
            {
              "value": "Walkable distance to the heart of evergrowing sarjapur road"
            }
          ]
        },
        {
          "id": "beegruScore",
          "beegruScore": [
            {
              "key": "Legal and Bank Support",
              "value": "80"
            },
            {
              "key": "Approval stage",
              "value": "60"
            },
            {
              "key": "Accesibility",
              "value": "80"
            },
            {
              "key": "Vaastu & Location",
              "value": "80"
            },
            {
              "key": "Price Value",
              "value": "50"
            },
            {
              "key": "Neighbourhood",
              "value": "90"
            },
            {
              "key": "Appreciation Potential",
              "value": "80"
            }
          ]
        },
        {
          "id": "propertAmenities",
          "propertAmenities": [
            {
              "key": "ac",
              "unicode": "",
              "value": "AC"
            },
            {
              "key": "gym",
              "unicode": "",
              "value": "GYM"
            },
            {
              "key": "laundry",
              "unicode": "",
              "value": "Laundry"
            },
            {
              "key": "cctv",
              "unicode": "",
              "value": "CCTV"
            },
            {
              "key": "security",
              "unicode": "",
              "value": "SECURITY"
            },
            {
              "key": "wifi",
              "unicode": "",
              "value": "WIFI"
            },
            {
              "key": "pool",
              "unicode": "",
              "value": "POOL"
            }
          ]
        },
        {
          "id": "propertLocation",
          "propertLocation": [
            {
              "address": "Kesav Nagar, Bangalore",
              "latitude": "",
              "longitude": ""
            }
          ]
        },
        {
          "id": "propertVicinity",
          "propertVicinity": [
            {
              "id": "Schools",
              "nearBy": [
                {
                  "name": "OldField Primary School",
                  "distanceFrom": "0.6 miles"
                },
                {
                  "name": "Guilden Sutton Cofe primary schools",
                  "distanceFrom": "0.7 miles"
                },
                {
                  "name": "The Hammold School",
                  "distanceFrom": "0.8 miles"
                },
                {
                  "name": "The bishop Blue Coat High School",
                  "distanceFrom": "1.6 miles"
                }
              ]
            },
            {
              "id": "Restaurant",
              "nearBy": [
                {
                  "name": "OldField Primary School",
                  "distanceFrom": "0.6 miles"
                },
                {
                  "name": "Guilden Sutton Cofe primary schools",
                  "distanceFrom": "0.7 miles"
                },
                {
                  "name": "The Hammold School",
                  "distanceFrom": "0.8 miles"
                },
                {
                  "name": "The bishop Blue Coat High School",
                  "distanceFrom": "1.6 miles"
                }
              ]
            },
            {
              "id": "Malls",
              "nearBy": [
                {
                  "name": "OldField Primary School",
                  "distanceFrom": "0.6 miles"
                },
                {
                  "name": "Guilden Sutton Cofe primary schools",
                  "distanceFrom": "0.7 miles"
                },
                {
                  "name": "The Hammold School",
                  "distanceFrom": "0.8 miles"
                },
                {
                  "name": "The bishop Blue Coat High School",
                  "distanceFrom": "1.6 miles"
                }
              ]
            },
            {
              "id": "Hospitals",
              "nearBy": [
                {
                  "name": "OldField Primary School",
                  "distanceFrom": "0.6 miles"
                },
                {
                  "name": "Guilden Sutton Cofe primary schools",
                  "distanceFrom": "0.7 miles"
                },
                {
                  "name": "The Hammold School",
                  "distanceFrom": "0.8 miles"
                },
                {
                  "name": "The bishop Blue Coat High School",
                  "distanceFrom": "1.6 miles"
                }
              ]
            }
          ]
        }
      ],
      "propertyDetails": [
        {
          "propertyName": "Jaz Aquaviva Hurghada",
          "propertyType": "House Tolet/For Sale",
          "propertyPrice": "53,88,678",
          "propertyPerSqFt": "5757/sqft",
          "propertyPriceIcons": [
            {
              "icon": "upload",
              "key": "upload",
              "value": "upload"
            },
            {
              "icon": "floppy",
              "key": "floppy",
              "value": "floppy"
            }
          ],
          "propertyIcons": [
            {
              "icon": "room",
              "key": "roomPSqFt",
              "value": "1600 sq Ft"
            },
            {
              "icon": "beds",
              "key": "beds",
              "value": "2 beds"
            },
            {
              "icon": "bath",
              "key": "bath",
              "value": "1 bath"
            },
            {
              "icon": "garage",
              "key": "garage",
              "value": "1 garage"
            }
          ],
          "propertyAddress": "Pole star city barajod Toll Plaza, Kanpur",
          "name": "property 6",
          "heading": "Recedential property 8 acres on Hrlur main road",
          "synopsis": "Lorem Ipsum is simply dummy text of the printing and typesetting industry. Lorem Ipsum has been the industry's standard dummy text ever since the 1500s, when an unknown printer took a galley of type and scrambled it to make a type specimen book. It has survived not only five centuries, but also the leap into electronic ",
          "priceRange": "120000-320000",
          "minPrice": "120000",
          "maxPrice": "320000",
          "currency": "rupee",
          "type": "independent House",
          "location": "anekalgooglemaplink",
          "locality": " Anekal, ",
          "distict": " Bangalore, ",
          "state": " Karnataka",
          "propertyAction": "For Sale",
          "pricePerSqft": "2400 Sq ft",
          "roomDetails": [
            {
              "bedRoom": "2",
              "bedRoomType": "onoe master/one normal",
              "bathroom": "2",
              "bathroomType": "one attached/one separate",
              "flooring": "marble",
              "studyRoom": "yes",
              "beds": "3"
            }
          ],
          "roomShortMetadata": {
            "icons": {
              "bedRoom": "2",
              "bathRoom": "2",
              "beds": "2"
            }
          }
        }
      ]
    }
  ],

  "featuredProperties": [
    {
      "id": "property1004",
      "images": [
        {
          "mobile": "/static/media/mobile.6e627553.jpg",
          "tablet": "/static/media/mobile.6e627553.jpg",
          "laptop": "/static/media/mobile.6e627553.jpg",
          "hd": "/static/media/mobile.6e627553.jpg"
        }
      ],
      "propertyTabs": [
        {
          "id": "aboutProject",
          "aboutProject": [
            {
              "value": "BBP Limits"
            },
            {
              "value": "OC and CC obtained"
            },
            {
              "value": "Budget friendly ( Starting 47L ) "
            },
            {
              "value": "14 flats sold and lively resident community"
            },
            {
              "value": "24/7 security and surveillance"
            },
            {
              "value": "24/7 water supply"
            }
          ]
        },
        {
          "id": "aboutLocation",
          "aboutLocation": [
            {
              "value": "0.5 km from Wipro Main gate Sarjapur Road"
            },
            {
              "value": "Near all softeare tech parks"
            },
            {
              "value": "Building viewable from an entire neighbourhood"
            },
            {
              "value": "Walkable distance to supermarket, schools, fine dining restaurant, breweries, boutiques, and malls"
            },
            {
              "value": "Away from bypass road so less traffic and less pollution"
            },
            {
              "value": "Walkable distance to the heart of evergrowing sarjapur road"
            }
          ]
        },
        {
          "id": "beegruScore",
          "beegruScore": [
            {
              "key": "Legal and Bank Support",
              "value": "80"
            },
            {
              "key": "Approval stage",
              "value": "60"
            },
            {
              "key": "Accesibility",
              "value": "80"
            },
            {
              "key": "Vaastu & Location",
              "value": "80"
            },
            {
              "key": "Price Value",
              "value": "50"
            },
            {
              "key": "Neighbourhood",
              "value": "90"
            },
            {
              "key": "Appreciation Potential",
              "value": "80"
            }
          ]
        },
        {
          "id": "propertAmenities",
          "propertAmenities": [
            {
              "key": "ac",
              "unicode": "",
              "value": "AC"
            },
            {
              "key": "gym",
              "unicode": "",
              "value": "GYM"
            },
            {
              "key": "laundry",
              "unicode": "",
              "value": "Laundry"
            },
            {
              "key": "cctv",
              "unicode": "",
              "value": "CCTV"
            },
            {
              "key": "security",
              "unicode": "",
              "value": "SECURITY"
            },
            {
              "key": "wifi",
              "unicode": "",
              "value": "WIFI"
            },
            {
              "key": "pool",
              "unicode": "",
              "value": "POOL"
            }
          ]
        },
        {
          "id": "propertLocation",
          "propertLocation": [
            {
              "address": "Kesav Nagar, Bangalore",
              "latitude": "",
              "longitude": ""
            }
          ]
        },
        {
          "id": "propertVicinity",
          "propertVicinity": [
            {
              "id": "Schools",
              "nearBy": [
                {
                  "name": "OldField Primary School",
                  "distanceFrom": "0.6 miles"
                },
                {
                  "name": "Guilden Sutton Cofe primary schools",
                  "distanceFrom": "0.7 miles"
                },
                {
                  "name": "The Hammold School",
                  "distanceFrom": "0.8 miles"
                },
                {
                  "name": "The bishop Blue Coat High School",
                  "distanceFrom": "1.6 miles"
                }
              ]
            },
            {
              "id": "Restaurant",
              "nearBy": [
                {
                  "name": "OldField Primary School",
                  "distanceFrom": "0.6 miles"
                },
                {
                  "name": "Guilden Sutton Cofe primary schools",
                  "distanceFrom": "0.7 miles"
                },
                {
                  "name": "The Hammold School",
                  "distanceFrom": "0.8 miles"
                },
                {
                  "name": "The bishop Blue Coat High School",
                  "distanceFrom": "1.6 miles"
                }
              ]
            },
            {
              "id": "Malls",
              "nearBy": [
                {
                  "name": "OldField Primary School",
                  "distanceFrom": "0.6 miles"
                },
                {
                  "name": "Guilden Sutton Cofe primary schools",
                  "distanceFrom": "0.7 miles"
                },
                {
                  "name": "The Hammold School",
                  "distanceFrom": "0.8 miles"
                },
                {
                  "name": "The bishop Blue Coat High School",
                  "distanceFrom": "1.6 miles"
                }
              ]
            },
            {
              "id": "Hospitals",
              "nearBy": [
                {
                  "name": "OldField Primary School",
                  "distanceFrom": "0.6 miles"
                },
                {
                  "name": "Guilden Sutton Cofe primary schools",
                  "distanceFrom": "0.7 miles"
                },
                {
                  "name": "The Hammold School",
                  "distanceFrom": "0.8 miles"
                },
                {
                  "name": "The bishop Blue Coat High School",
                  "distanceFrom": "1.6 miles"
                }
              ]
            }
          ]
        }
      ],
      "propertyDetails": [
        {
          "propertyName": "Jaz Aquaviva Hurghada",
          "propertyType": "House Tolet/For Sale",
          "propertyPrice": "53,88,678",
          "propertyPerSqFt": "5757/sqft",
          "propertyPriceIcons": [
            {
              "icon": "upload",
              "key": "upload",
              "value": "upload"
            },
            {
              "icon": "floppy",
              "key": "floppy",
              "value": "floppy"
            }
          ],
          "propertyIcons": [
            {
              "icon": "room",
              "key": "roomPSqFt",
              "value": "1600 sq Ft"
            },
            {
              "icon": "beds",
              "key": "beds",
              "value": "2 beds"
            },
            {
              "icon": "bath",
              "key": "bath",
              "value": "1 bath"
            },
            {
              "icon": "garage",
              "key": "garage",
              "value": "1 garage"
            }
          ],
          "propertyAddress": "Pole star city barajod Toll Plaza, Kanpur",
          "name": "property 4",
          "heading": "5BHK mansion in Anekal for sale",
          "synopsis": "Lorem Ipsum is simply dummy text of the printing and typesetting industry. Lorem Ipsum has been the industry's standard dummy text ever since the 1500s, when an unknown printer took a galley of type and scrambled it to make a type specimen book. It has survived not only five centuries, but also the leap into electronic ",
          "priceRange": "3,20,000.00 - 420,000.00",
          "minPrice": "120000",
          "maxPrice": "320000",
          "currency": "rupee",
          "type": "independent House",
          "location": "anekalgooglemaplink",
          "locality": " K R Puram, ",
          "distict": " Bangalore ",
          "state": " Karnataka",
          "propertyAction": "For Sale",
          "pricePerSqft": "2400 Sq ft",
          "roomDetails": [
            {
              "bedRoom": "2",
              "bedRoomType": "onoe master/one normal",
              "bathroom": "2",
              "bathroomType": "one attached/one separate",
              "flooring": "marble",
              "studyRoom": "yes",
              "beds": "3"
            }
          ],
          "roomShortMetadata": {
            "icons": {
              "bedRoom": "2",
              "bathRoom": "2",
              "beds": "2"
            }
          }
        }
      ]
    },

    {
      "id": "property1005",
      "images": [
        {
          "mobile": "/static/media/mobile.6e627553.jpg",
          "tablet": "/static/media/mobile.6e627553.jpg",
          "laptop": "/static/media/mobile.6e627553.jpg",
          "hd": "/static/media/mobile.6e627553.jpg"
        }
      ],
      "propertyTabs": [
        {
          "id": "aboutProject",
          "aboutProject": [
            {
              "value": "BBP Limits"
            },
            {
              "value": "OC and CC obtained"
            },
            {
              "value": "Budget friendly ( Starting 47L ) "
            },
            {
              "value": "14 flats sold and lively resident community"
            },
            {
              "value": "24/7 security and surveillance"
            },
            {
              "value": "24/7 water supply"
            }
          ]
        },
        {
          "id": "aboutLocation",
          "aboutLocation": [
            {
              "value": "0.5 km from Wipro Main gate Sarjapur Road"
            },
            {
              "value": "Near all softeare tech parks"
            },
            {
              "value": "Building viewable from an entire neighbourhood"
            },
            {
              "value": "Walkable distance to supermarket, schools, fine dining restaurant, breweries, boutiques, and malls"
            },
            {
              "value": "Away from bypass road so less traffic and less pollution"
            },
            {
              "value": "Walkable distance to the heart of evergrowing sarjapur road"
            }
          ]
        },
        {
          "id": "beegruScore",
          "beegruScore": [
            {
              "key": "Legal and Bank Support",
              "value": "80"
            },
            {
              "key": "Approval stage",
              "value": "60"
            },
            {
              "key": "Accesibility",
              "value": "80"
            },
            {
              "key": "Vaastu & Location",
              "value": "80"
            },
            {
              "key": "Price Value",
              "value": "50"
            },
            {
              "key": "Neighbourhood",
              "value": "90"
            },
            {
              "key": "Appreciation Potential",
              "value": "80"
            }
          ]
        },
        {
          "id": "propertAmenities",
          "propertAmenities": [
            {
              "key": "ac",
              "unicode": "",
              "value": "AC"
            },
            {
              "key": "gym",
              "unicode": "",
              "value": "GYM"
            },
            {
              "key": "laundry",
              "unicode": "",
              "value": "Laundry"
            },
            {
              "key": "cctv",
              "unicode": "",
              "value": "CCTV"
            },
            {
              "key": "security",
              "unicode": "",
              "value": "SECURITY"
            },
            {
              "key": "wifi",
              "unicode": "",
              "value": "WIFI"
            },
            {
              "key": "pool",
              "unicode": "",
              "value": "POOL"
            }
          ]
        },
        {
          "id": "propertLocation",
          "propertLocation": [
            {
              "address": "Kesav Nagar, Bangalore",
              "latitude": "",
              "longitude": ""
            }
          ]
        },
        {
          "id": "propertVicinity",
          "propertVicinity": [
            {
              "id": "Schools",
              "nearBy": [
                {
                  "name": "OldField Primary School",
                  "distanceFrom": "0.6 miles"
                },
                {
                  "name": "Guilden Sutton Cofe primary schools",
                  "distanceFrom": "0.7 miles"
                },
                {
                  "name": "The Hammold School",
                  "distanceFrom": "0.8 miles"
                },
                {
                  "name": "The bishop Blue Coat High School",
                  "distanceFrom": "1.6 miles"
                }
              ]
            },
            {
              "id": "Restaurant",
              "nearBy": [
                {
                  "name": "OldField Primary School",
                  "distanceFrom": "0.6 miles"
                },
                {
                  "name": "Guilden Sutton Cofe primary schools",
                  "distanceFrom": "0.7 miles"
                },
                {
                  "name": "The Hammold School",
                  "distanceFrom": "0.8 miles"
                },
                {
                  "name": "The bishop Blue Coat High School",
                  "distanceFrom": "1.6 miles"
                }
              ]
            },
            {
              "id": "Malls",
              "nearBy": [
                {
                  "name": "OldField Primary School",
                  "distanceFrom": "0.6 miles"
                },
                {
                  "name": "Guilden Sutton Cofe primary schools",
                  "distanceFrom": "0.7 miles"
                },
                {
                  "name": "The Hammold School",
                  "distanceFrom": "0.8 miles"
                },
                {
                  "name": "The bishop Blue Coat High School",
                  "distanceFrom": "1.6 miles"
                }
              ]
            },
            {
              "id": "Hospitals",
              "nearBy": [
                {
                  "name": "OldField Primary School",
                  "distanceFrom": "0.6 miles"
                },
                {
                  "name": "Guilden Sutton Cofe primary schools",
                  "distanceFrom": "0.7 miles"
                },
                {
                  "name": "The Hammold School",
                  "distanceFrom": "0.8 miles"
                },
                {
                  "name": "The bishop Blue Coat High School",
                  "distanceFrom": "1.6 miles"
                }
              ]
            }
          ]
        }
      ],
      "propertyDetails": [
        {
          "propertyName": "Jaz Aquaviva Hurghada",
          "propertyType": "House Tolet/For Sale",
          "propertyPrice": "53,88,678",
          "propertyPerSqFt": "5757/sqft",
          "propertyPriceIcons": [
            {
              "icon": "upload",
              "key": "upload",
              "value": "upload"
            },
            {
              "icon": "floppy",
              "key": "floppy",
              "value": "floppy"
            }
          ],
          "propertyIcons": [
            {
              "icon": "room",
              "key": "roomPSqFt",
              "value": "1600 sq Ft"
            },
            {
              "icon": "beds",
              "key": "beds",
              "value": "2 beds"
            },
            {
              "icon": "bath",
              "key": "bath",
              "value": "1 bath"
            },
            {
              "icon": "garage",
              "key": "garage",
              "value": "1 garage"
            }
          ],
          "propertyAddress": "Pole star city barajod Toll Plaza, Kanpur",
          "name": "property 5",
          "heading": "1 acres land for sale (Industrial)",
          "synopsis": "Lorem Ipsum is simply dummy text of the printing and typesetting industry. Lorem Ipsum has been the industry's standard dummy text ever since the 1500s, when an unknown printer took a galley of type and scrambled it to make a type specimen book. It has survived not only five centuries, but also the leap into electronic ",
          "priceRange": "5.3Cr",
          "minPrice": "120000",
          "maxPrice": "320000",
          "currency": "dolar",
          "type": "independent House",
          "location": "anekalgooglemaplink",
          "locality": " Anekal, ",
          "distict": " Bangalore, ",
          "state": " Karnataka ",
          "propertyAction": "For Sale",
          "pricePerSqft": "2400 Sq ft",
          "roomDetails": [
            {
              "bedRoom": "2",
              "bedRoomType": "onoe master/one normal",
              "bathroom": "2",
              "bathroomType": "one attached/one separate",
              "flooring": "marble",
              "studyRoom": "yes",
              "beds": "3"
            }
          ],
          "roomShortMetadata": {
            "icons": {
              "bedRoom": "2",
              "bathRoom": "2",
              "beds": "2"
            }
          }
        }
      ]
    },
    {
      "id": "property1001",
      "images": [
        {
          "mobile": "/static/media/mobile.6e627553.jpg",
          "tablet": "/static/media/mobile.6e627553.jpg",
          "laptop": "/static/media/mobile.6e627553.jpg",
          "hd": "/static/media/mobile.6e627553.jpg"
        }
      ],
      "propertyTabs": [
        {
          "id": "aboutProject",
          "aboutProject": [
            {
              "value": "BBP Limits"
            },
            {
              "value": "OC and CC obtained"
            },
            {
              "value": "Budget friendly ( Starting 47L ) "
            },
            {
              "value": "14 flats sold and lively resident community"
            },
            {
              "value": "24/7 security and surveillance"
            },
            {
              "value": "24/7 water supply"
            }
          ]
        },
        {
          "id": "aboutLocation",
          "aboutLocation": [
            {
              "value": "0.5 km from Wipro Main gate Sarjapur Road"
            },
            {
              "value": "Near all softeare tech parks"
            },
            {
              "value": "Building viewable from an entire neighbourhood"
            },
            {
              "value": "Walkable distance to supermarket, schools, fine dining restaurant, breweries, boutiques, and malls"
            },
            {
              "value": "Away from bypass road so less traffic and less pollution"
            },
            {
              "value": "Walkable distance to the heart of evergrowing sarjapur road"
            }
          ]
        },
        {
          "id": "beegruScore",
          "beegruScore": [
            {
              "key": "Legal and Bank Support",
              "value": "80"
            },
            {
              "key": "Approval stage",
              "value": "60"
            },
            {
              "key": "Accesibility",
              "value": "80"
            },
            {
              "key": "Vaastu & Location",
              "value": "80"
            },
            {
              "key": "Price Value",
              "value": "50"
            },
            {
              "key": "Neighbourhood",
              "value": "90"
            },
            {
              "key": "Appreciation Potential",
              "value": "80"
            }
          ]
        },
        {
          "id": "propertAmenities",
          "propertAmenities": [
            {
              "key": "ac",
              "unicode": "",
              "value": "AC"
            },
            {
              "key": "gym",
              "unicode": "",
              "value": "GYM"
            },
            {
              "key": "laundry",
              "unicode": "",
              "value": "Laundry"
            },
            {
              "key": "cctv",
              "unicode": "",
              "value": "CCTV"
            },
            {
              "key": "security",
              "unicode": "",
              "value": "SECURITY"
            },
            {
              "key": "wifi",
              "unicode": "",
              "value": "WIFI"
            },
            {
              "key": "pool",
              "unicode": "",
              "value": "POOL"
            }
          ]
        },
        {
          "id": "propertLocation",
          "propertLocation": [
            {
              "address": "Kesav Nagar, Bangalore",
              "latitude": "",
              "longitude": ""
            }
          ]
        },
        {
          "id": "propertVicinity",
          "propertVicinity": [
            {
              "id": "Schools",
              "nearBy": [
                {
                  "name": "OldField Primary School",
                  "distanceFrom": "0.6 miles"
                },
                {
                  "name": "Guilden Sutton Cofe primary schools",
                  "distanceFrom": "0.7 miles"
                },
                {
                  "name": "The Hammold School",
                  "distanceFrom": "0.8 miles"
                },
                {
                  "name": "The bishop Blue Coat High School",
                  "distanceFrom": "1.6 miles"
                }
              ]
            },
            {
              "id": "Restaurant",
              "nearBy": [
                {
                  "name": "OldField Primary School",
                  "distanceFrom": "0.6 miles"
                },
                {
                  "name": "Guilden Sutton Cofe primary schools",
                  "distanceFrom": "0.7 miles"
                },
                {
                  "name": "The Hammold School",
                  "distanceFrom": "0.8 miles"
                },
                {
                  "name": "The bishop Blue Coat High School",
                  "distanceFrom": "1.6 miles"
                }
              ]
            },
            {
              "id": "Malls",
              "nearBy": [
                {
                  "name": "OldField Primary School",
                  "distanceFrom": "0.6 miles"
                },
                {
                  "name": "Guilden Sutton Cofe primary schools",
                  "distanceFrom": "0.7 miles"
                },
                {
                  "name": "The Hammold School",
                  "distanceFrom": "0.8 miles"
                },
                {
                  "name": "The bishop Blue Coat High School",
                  "distanceFrom": "1.6 miles"
                }
              ]
            },
            {
              "id": "Hospitals",
              "nearBy": [
                {
                  "name": "OldField Primary School",
                  "distanceFrom": "0.6 miles"
                },
                {
                  "name": "Guilden Sutton Cofe primary schools",
                  "distanceFrom": "0.7 miles"
                },
                {
                  "name": "The Hammold School",
                  "distanceFrom": "0.8 miles"
                },
                {
                  "name": "The bishop Blue Coat High School",
                  "distanceFrom": "1.6 miles"
                }
              ]
            }
          ]
        }
      ],
      "propertyDetails": [
        {
          "propertyName": "Jaz Aquaviva Hurghada",
          "propertyType": "House Tolet/For Sale",
          "propertyPrice": "53,88,678",
          "propertyPerSqFt": "5757/sqft",
          "propertyPriceIcons": [
            {
              "icon": "upload",
              "key": "upload",
              "value": "upload"
            },
            {
              "icon": "floppy",
              "key": "floppy",
              "value": "floppy"
            }
          ],
          "propertyIcons": [
            {
              "icon": "room",
              "key": "roomPSqFt",
              "value": "1600 sq Ft"
            },
            {
              "icon": "beds",
              "key": "beds",
              "value": "2 beds"
            },
            {
              "icon": "bath",
              "key": "bath",
              "value": "1 bath"
            },
            {
              "icon": "garage",
              "key": "garage",
              "value": "1 garage"
            }
          ],
          "propertyAddress": "Pole star city barajod Toll Plaza, Kanpur",
          "name": "property 1",
          "heading": "Recedential property 8 acres on Hrlur main road",
          "synopsis": "Lorem Ipsum is simply dummy text of the printing and typesetting industry. Lorem Ipsum has been the industry's standard dummy text ever since the 1500s, when an unknown printer took a galley of type and scrambled it to make a type specimen book. It has survived not only five centuries, but also the leap into electronic ",
          "priceRange": "3,20,000.00-4,20,000.00",
          "minPrice": "120000",
          "maxPrice": "320000",
          "currency": "rupee",
          "type": "independent House",
          "location": "anekalgooglemaplink",
          "locality": " Kormangala, ",
          "distict": " Bangalore, ",
          "state": " Karnataka",
          "propertyAction": "For Sale",
          "pricePerSqft": "2400 Sq ft",
          "roomDetails": [
            {
              "bedRoom": "2",
              "bedRoomType": "onoe master/one normal",
              "bathroom": "2",
              "bathroomType": "one attached/one separate",
              "flooring": "marble",
              "studyRoom": "yes",
              "beds": "3"
            }
          ],
          "roomShortMetadata": {
            "icons": {
              "bedRoom": "2",
              "bathRoom": "2",
              "beds": "2"
            }
          }
        }
      ]
    },

    {
      "id": "property1005",
      "images": [
        {
          "mobile": "/static/media/mobile.6e627553.jpg",
          "tablet": "/static/media/mobile.6e627553.jpg",
          "laptop": "/static/media/mobile.6e627553.jpg",
          "hd": "/static/media/mobile.6e627553.jpg"
        }
      ],
      "propertyTabs": [
        {
          "id": "aboutProject",
          "aboutProject": [
            {
              "value": "BBP Limits"
            },
            {
              "value": "OC and CC obtained"
            },
            {
              "value": "Budget friendly ( Starting 47L ) "
            },
            {
              "value": "14 flats sold and lively resident community"
            },
            {
              "value": "24/7 security and surveillance"
            },
            {
              "value": "24/7 water supply"
            }
          ]
        },
        {
          "id": "aboutLocation",
          "aboutLocation": [
            {
              "value": "0.5 km from Wipro Main gate Sarjapur Road"
            },
            {
              "value": "Near all softeare tech parks"
            },
            {
              "value": "Building viewable from an entire neighbourhood"
            },
            {
              "value": "Walkable distance to supermarket, schools, fine dining restaurant, breweries, boutiques, and malls"
            },
            {
              "value": "Away from bypass road so less traffic and less pollution"
            },
            {
              "value": "Walkable distance to the heart of evergrowing sarjapur road"
            }
          ]
        },
        {
          "id": "beegruScore",
          "beegruScore": [
            {
              "key": "Legal and Bank Support",
              "value": "80"
            },
            {
              "key": "Approval stage",
              "value": "60"
            },
            {
              "key": "Accesibility",
              "value": "80"
            },
            {
              "key": "Vaastu & Location",
              "value": "80"
            },
            {
              "key": "Price Value",
              "value": "50"
            },
            {
              "key": "Neighbourhood",
              "value": "90"
            },
            {
              "key": "Appreciation Potential",
              "value": "80"
            }
          ]
        },
        {
          "id": "propertAmenities",
          "propertAmenities": [
            {
              "key": "ac",
              "unicode": "",
              "value": "AC"
            },
            {
              "key": "gym",
              "unicode": "",
              "value": "GYM"
            },
            {
              "key": "laundry",
              "unicode": "",
              "value": "Laundry"
            },
            {
              "key": "cctv",
              "unicode": "",
              "value": "CCTV"
            },
            {
              "key": "security",
              "unicode": "",
              "value": "SECURITY"
            },
            {
              "key": "wifi",
              "unicode": "",
              "value": "WIFI"
            },
            {
              "key": "pool",
              "unicode": "",
              "value": "POOL"
            }
          ]
        },
        {
          "id": "propertLocation",
          "propertLocation": [
            {
              "address": "Kesav Nagar, Bangalore",
              "latitude": "",
              "longitude": ""
            }
          ]
        },
        {
          "id": "propertVicinity",
          "propertVicinity": [
            {
              "id": "Schools",
              "nearBy": [
                {
                  "name": "OldField Primary School",
                  "distanceFrom": "0.6 miles"
                },
                {
                  "name": "Guilden Sutton Cofe primary schools",
                  "distanceFrom": "0.7 miles"
                },
                {
                  "name": "The Hammold School",
                  "distanceFrom": "0.8 miles"
                },
                {
                  "name": "The bishop Blue Coat High School",
                  "distanceFrom": "1.6 miles"
                }
              ]
            },
            {
              "id": "Restaurant",
              "nearBy": [
                {
                  "name": "OldField Primary School",
                  "distanceFrom": "0.6 miles"
                },
                {
                  "name": "Guilden Sutton Cofe primary schools",
                  "distanceFrom": "0.7 miles"
                },
                {
                  "name": "The Hammold School",
                  "distanceFrom": "0.8 miles"
                },
                {
                  "name": "The bishop Blue Coat High School",
                  "distanceFrom": "1.6 miles"
                }
              ]
            },
            {
              "id": "Malls",
              "nearBy": [
                {
                  "name": "OldField Primary School",
                  "distanceFrom": "0.6 miles"
                },
                {
                  "name": "Guilden Sutton Cofe primary schools",
                  "distanceFrom": "0.7 miles"
                },
                {
                  "name": "The Hammold School",
                  "distanceFrom": "0.8 miles"
                },
                {
                  "name": "The bishop Blue Coat High School",
                  "distanceFrom": "1.6 miles"
                }
              ]
            },
            {
              "id": "Hospitals",
              "nearBy": [
                {
                  "name": "OldField Primary School",
                  "distanceFrom": "0.6 miles"
                },
                {
                  "name": "Guilden Sutton Cofe primary schools",
                  "distanceFrom": "0.7 miles"
                },
                {
                  "name": "The Hammold School",
                  "distanceFrom": "0.8 miles"
                },
                {
                  "name": "The bishop Blue Coat High School",
                  "distanceFrom": "1.6 miles"
                }
              ]
            }
          ]
        }
      ],
      "propertyDetails": [
        {
          "propertyName": "Jaz Aquaviva Hurghada",
          "propertyType": "House Tolet/For Sale",
          "propertyPrice": "53,88,678",
          "propertyPerSqFt": "5757/sqft",
          "propertyPriceIcons": [
            {
              "icon": "upload",
              "key": "upload",
              "value": "upload"
            },
            {
              "icon": "floppy",
              "key": "floppy",
              "value": "floppy"
            }
          ],
          "propertyIcons": [
            {
              "icon": "room",
              "key": "roomPSqFt",
              "value": "1600 sq Ft"
            },
            {
              "icon": "beds",
              "key": "beds",
              "value": "2 beds"
            },
            {
              "icon": "bath",
              "key": "bath",
              "value": "1 bath"
            },
            {
              "icon": "garage",
              "key": "garage",
              "value": "1 garage"
            }
          ],
          "propertyAddress": "Pole star city barajod Toll Plaza, Kanpur",
          "name": "property 5",
          "heading": "Recedential property 8 acres on Hrlur main road",
          "synopsis": "Lorem Ipsum is simply dummy text of the printing and typesetting industry. Lorem Ipsum has been the industry's standard dummy text ever since the 1500s, when an unknown printer took a galley of type and scrambled it to make a type specimen book. It has survived not only five centuries, but also the leap into electronic ",
          "priceRange": "120000-320000",
          "minPrice": "120000",
          "maxPrice": "320000",
          "currency": "rupee",
          "type": "independent House",
          "location": "anekalgooglemaplink",
          "locality": " Nelmangala, ",
          "distict": " Bangalore, ",
          "state": " Karnataka",
          "propertyAction": "For Sale",
          "pricePerSqft": "2400 Sq ft",
          "roomDetails": [
            {
              "bedRoom": "2",
              "bedRoomType": "onoe master/one normal",
              "bathroom": "2",
              "bathroomType": "one attached/one separate",
              "flooring": "marble",
              "studyRoom": "yes",
              "beds": "3"
            }
          ],
          "roomShortMetadata": {
            "icons": {
              "bedRoom": "2",
              "bathRoom": "2",
              "beds": "2"
            }
          }
        }
      ]
    }
  ],

  "emiCalculator": [
    {
      "id": "bajajFinserv",
      "bankName": "Bajaj Finserv",
      "planAndEmi": [
        {
          "header": [
            {
              "id": "Plan",
              "noCost": "true",
              "monthsPlan": [
                {
                  "key": "3 EMI"
                },
                {
                  "key": "6 EMI"
                },
                {
                  "key": "9 EMI"
                },
                {
                  "key": "12 EMI"
                }
              ]
            },
            {
              "id": "EMI",
              "noCost": "true",
              "monthsPlan": [
                {
                  "key": "3 EMI"
                },
                {
                  "key": "6 EMI"
                },
                {
                  "key": "9 EMI"
                },
                {
                  "key": "12 EMI"
                }
              ]
            },
            {
              "id": "actualPayable",
              "noCost": "true",
              "monthsPlan": [
                {
                  "key": "3 EMI"
                },
                {
                  "key": "6 EMI"
                },
                {
                  "key": "9 EMI"
                },
                {
                  "key": "12 EMI"
                }
              ]
            }
          ]
        }
      ]
    }
  ]
}
